{
  "project_info": {
    "project_number": "29699917039",
    "firebase_url": "https://radi-app.firebaseio.com",
    "project_id": "radi-app",
    "storage_bucket": "radi-app.appspot.com"
  },
  "client": [
    {
      "client_info": {
        "mobilesdk_app_id": "1:29699917039:android:767ff06b2d00aff7",
        "android_client_info": {
          "package_name": "com.radi"
        }
      },
      "oauth_client": [
        {
          "client_id": "29699917039-250kt831i0avq6de7i1etb12nqufj5k9.apps.googleusercontent.com",
          "client_type": 1,
          "android_info": {
            "package_name": "com.radi",
            "certificate_hash": "619b7749f338381e6dafddf978626e8776fb4ce8"
          }
        },
        {
          "client_id": "29699917039-232sat9c0582m1ve001vfsfi9ga1340l.apps.googleusercontent.com",
          "client_type": 3
        }
      ],
      "api_key": [
        {
          "current_key": "AIzaSyBPXj33fjmQ85K5Kb1Yd0qEsCmeqU0uTLc"
        }
      ],
      "services": {
        "appinvite_service": {
          "other_platform_oauth_client": [
            {
              "client_id": "29699917039-232sat9c0582m1ve001vfsfi9ga1340l.apps.googleusercontent.com",
              "client_type": 3
            },
            {
              "client_id": "29699917039-urbs2rdqh485d678e0dkpq9rkskbei76.apps.googleusercontent.com",
              "client_type": 2,
              "ios_info": {
                "bundle_id": "com.radiApp"
              }
            }
          ]
        }
      }
    }
  ],
  "configuration_version": "1"
}